{
  "id" : "SLES_54321",
  "name" : "Need For Speed Carbono",
  "summary" : "La lucha por la ciudad se decide en el Canyon.",
  "publisher" : "Electronic Arts",
  "year" : 2004,
  "price" : 60.0,
  "platform" : {
    "acronym" : "PS2",
    "name" : "PlayStation 2",
    "company" : "Sony"
  },
  "copies" : [ {
    "internalID" : "SLES_54321_001"
  }, {
    "internalID" : "SLES_54321_002"
  }, {
    "internalID" : "SLES_54321_003"
  }, {
    "internalID" : "SLES_54321_004"
  }, {
    "internalID" : "SLES_54321_005"
  } ]
}